@startuml
title Exercici 2
class Llibre {
final editor : String
final data_publicacio : Date
final ISBN : String
}
class Parts {
titol : String
numero : integer
}
class Capitols {
titol : String
numero : integer
resum : String
}
class Seccions {
titol : String
numero : integer
}
Llibre *- Parts
Parts *- Capitols
Capitols *- Seccions
@enduml
