@startuml
title Exercici 2
class Llibre {
editor : String
data_publicacio : String
ISBN : String
}
class Parts {
titol : String
numero : integer
}
class Capitols {
titol : String
numero : integer
resum : String
}
class Seccions {
titol : String
numero : integer
}
Llibre *- Parts
Parts *- Capitols
Capitols *- Seccions
@enduml
